8 Accumulator models of choice and response time – Computational Cognitive Models
…
    to_return <- cbind(t_record, x_record)
    
    colnames(to_return) <- c("t", paste0("x", 1:n_accum))
    
    return(as_tibble(to_return))
}

Note that each time we run the simulation, we get the trajectory of accumulated evidence for both accumulators, labeled x1 and x2.

Code

race_sim(v = c(1, 0), a = 1, t0 = 0.2)

# A tibble: 35 × 3
       t     x1       x2
   <dbl>  <dbl>    <dbl>
 1  0.2  0       0      
 2  0.21 0.0595 -0.114  
 3  0.22 0.141  -0.0747 
 4  0.23 0.282   0.00144
 5  0.24 0.392  -0.125  
 6  0.25 0.504  -0.0206 
 7  0.26 0.383  -0.0453 
 8  0.27 0.353  -0.0878 
 9  0.28 0.464  -0.221  
10  0.29 0.555  -0.162  
# ℹ 25 more rows
…
