9 Exemplar of the Exemplar Based Random Walk – Computational Cognitive Models
…
First, let’s see how easy it is to simulate data that comes from exactly the same trials that our participant experienced:

Code

sim_trials <- ebrw_nll(
    par = fit$par,
    stim_coords = stim_coords,
    study_items = study_items,
    probe_item = probe_item,
    n_sims = 1
)

print(sim_trials)

# A tibble: 28 × 4
   trial sim_index    rt response
   <int>     <int> <dbl> <chr>   
 1     1         1 1.11  lower   
 2     2         1 2.88  lower   
 3     3         1 1.71  upper   
 4     4         1 2.42  upper   
 5     5         1 2.48  upper   
 6     6         1 1.41  upper   
 7     7         1 0.979 upper   
 8     8         1 0.824 lower   
 9     9         1 1.50  lower   
10    10         1 1.26  upper   
# ℹ 18 more rows
…
# Obtain mean predictions for each trial
sim_means <- sim_trials %>%
    group_by(trial) %>%
    summarize(
        sim_p_upper = mean(response == "upper"),
        sim_mean_rt_yes = mean(rt[response == "upper"]),
        sim_mean_rt_no = mean(rt[response == "lower"])
    )

print(sim_means)

# A tibble: 28 × 4
   trial sim_p_upper sim_mean_rt_yes sim_mean_rt_no
   <int>       <dbl>           <dbl>          <dbl>
 1     1       0.001            1.37           1.63
 2     2       0.041            1.95           1.72
 3     3       0.991            1.86           1.38
 4     4       0.986            1.84           1.57
 5     5       0.989            1.87           2.00
 6     6       0.994            1.88           1.97
 7     7       0.993            1.81           1.44
 8     8       0.028            1.94           1.72
 9     9       0              NaN              1.52
10    10       0.988            1.81           1.77
# ℹ 18 more rows
…
Again, let’s see how this works. The code below computes the predicted mean response probabilities and RT’s for each trial:

Code

math_pred <- ebrw_nll(
    par = fit$par,
    stim_coords = stim_coords,
    study_items = study_items,
    probe_item = probe_item,
    n_sims = Inf
)

math_pred

# A tibble: 28 × 4
   trial       p_yes mean_rt_yes mean_rt_no
   <int>       <dbl>       <dbl>      <dbl>
 1     1 0.00420            1.84       1.64
 2     2 0.0359             1.89       1.70
 3     3 0.990              1.84       1.63
 4     4 0.990              1.84       1.63
 5     5 0.991              1.83       1.63
 6     6 0.990              1.84       1.63
 7     7 0.990              1.84       1.63
 8     8 0.0364             1.89       1.70
 9     9 0.000000120        1.71       1.52
10    10 0.992              1.83       1.62
# ℹ 18 more rows
…
