6 Model complexity and model comparison – Computational Cognitive Models
…
Code

n_trials <- 100

target_trials <- sampWiener(N = n_trials, a = 2, v = 0.5, w = 0.5, t0 = 0.2, sv = 0.3)
foil_trials <- sampWiener(N = n_trials, a = 2, v = -0.5, w = 0.5, t0 = 0.2, sv = 0.3)

(all_trials <- tibble(
    rt = c(target_trials$q, foil_trials$q),
    response = factor(c(target_trials$response, foil_trials$response), levels = c("lower", "upper")),
    item = factor(rep(c("Target", "Foil"), each = n_trials), levels = c("Target", "Foil"))
))

# A tibble: 200 × 3
      rt response item  
   <dbl> <fct>    <fct> 
 1 1.29  upper    Target
 2 0.973 upper    Target
 3 0.695 upper    Target
 4 1.75  upper    Target
 5 1.17  upper    Target
 6 1.18  upper    Target
 7 1.91  upper    Target
 8 1.46  upper    Target
 9 0.988 upper    Target
10 0.554 upper    Target
# ℹ 190 more rows
…
Code

K <- 10

all_trials_split <- all_trials %>%
    group_by(item) %>%
    mutate(set = sample(rep(1:K, ceiling(n() / K))[1:n()]))

The result looks like this, although it is worth keeping in mind that different runs will produce different splits since they are done randomly.

Code

all_trials_split

# A tibble: 200 × 4
# Groups:   item [2]
      rt response item     set
   <dbl> <fct>    <fct>  <int>
 1 1.29  upper    Target     4
 2 0.973 upper    Target     9
 3 0.695 upper    Target     6
 4 1.75  upper    Target     1
 5 1.17  upper    Target     4
 6 1.18  upper    Target     8
 7 1.91  upper    Target     2
 8 1.46  upper    Target    10
 9 0.988 upper    Target     3
10 0.554 upper    Target     2
# ℹ 190 more rows
…
